%YAML 1.1
%TAG !u! tag:unity3d.com,2011:
--- !u!1001 &9046961127015647903
PrefabInstance:
  m_ObjectHideFlags: 0
  serializedVersion: 2
  m_Modification:
    m_TransformParent: {fileID: 0}
    m_Modifications:
    - target: {fileID: 331158130, guid: 5a51d56330d51484bb68c65596ea4c44, type: 3}
      propertyPath: maxHealth
      value: 2
      objectReference: {fileID: 0}
    - target: {fileID: 331158130, guid: 5a51d56330d51484bb68c65596ea4c44, type: 3}
      propertyPath: gradient.ctime1
      value: 65535
      objectReference: {fileID: 0}
    - target: {fileID: 331158130, guid: 5a51d56330d51484bb68c65596ea4c44, type: 3}
      propertyPath: gradient.ctime2
      value: 65535
      objectReference: {fileID: 0}
    - target: {fileID: 331158130, guid: 5a51d56330d51484bb68c65596ea4c44, type: 3}
      propertyPath: gradient.m_NumColorKeys
      value: 2
      objectReference: {fileID: 0}
    - target: {fileID: 331158130, guid: 5a51d56330d51484bb68c65596ea4c44, type: 3}
      propertyPath: gradient.key1.r
      value: 0.09812209
      objectReference: {fileID: 0}
    - target: {fileID: 331158130, guid: 5a51d56330d51484bb68c65596ea4c44, type: 3}
      propertyPath: gradient.key1.g
      value: 0.10736522
      objectReference: {fileID: 0}
    - target: {fileID: 331158130, guid: 5a51d56330d51484bb68c65596ea4c44, type: 3}
      propertyPath: gradient.key1.b
      value: 0.5943396
      objectReference: {fileID: 0}
    - target: {fileID: 331158130, guid: 5a51d56330d51484bb68c65596ea4c44, type: 3}
      propertyPath: gradient.ctime0
      value: 32768
      objectReference: {fileID: 0}
    - target: {fileID: 4220090757554300254, guid: 5a51d56330d51484bb68c65596ea4c44,
        type: 3}
      propertyPath: m_LocalPosition.x
      value: -3.2878075
      objectReference: {fileID: 0}
    - target: {fileID: 4220090757554300254, guid: 5a51d56330d51484bb68c65596ea4c44,
        type: 3}
      propertyPath: m_LocalPosition.y
      value: 0.1426239
      objectReference: {fileID: 0}
    - target: {fileID: 4220090757554300254, guid: 5a51d56330d51484bb68c65596ea4c44,
        type: 3}
      propertyPath: m_LocalPosition.z
      value: 17.420303
      objectReference: {fileID: 0}
    - target: {fileID: 4220090757554300254, guid: 5a51d56330d51484bb68c65596ea4c44,
        type: 3}
      propertyPath: m_LocalRotation.x
      value: -0
      objectReference: {fileID: 0}
    - target: {fileID: 4220090757554300254, guid: 5a51d56330d51484bb68c65596ea4c44,
        type: 3}
      propertyPath: m_LocalRotation.y
      value: -0
      objectReference: {fileID: 0}
    - target: {fileID: 4220090757554300254, guid: 5a51d56330d51484bb68c65596ea4c44,
        type: 3}
      propertyPath: m_LocalRotation.z
      value: -0
      objectReference: {fileID: 0}
    - target: {fileID: 4220090757554300254, guid: 5a51d56330d51484bb68c65596ea4c44,
        type: 3}
      propertyPath: m_LocalRotation.w
      value: 1
      objectReference: {fileID: 0}
    - target: {fileID: 4220090757554300254, guid: 5a51d56330d51484bb68c65596ea4c44,
        type: 3}
      propertyPath: m_RootOrder
      value: 0
      objectReference: {fileID: 0}
    - target: {fileID: 4220090757554300254, guid: 5a51d56330d51484bb68c65596ea4c44,
        type: 3}
      propertyPath: m_LocalEulerAnglesHint.x
      value: 0
      objectReference: {fileID: 0}
    - target: {fileID: 4220090757554300254, guid: 5a51d56330d51484bb68c65596ea4c44,
        type: 3}
      propertyPath: m_LocalEulerAnglesHint.y
      value: 0
      objectReference: {fileID: 0}
    - target: {fileID: 4220090757554300254, guid: 5a51d56330d51484bb68c65596ea4c44,
        type: 3}
      propertyPath: m_LocalEulerAnglesHint.z
      value: 0
      objectReference: {fileID: 0}
    - target: {fileID: 7262023627004641303, guid: 5a51d56330d51484bb68c65596ea4c44,
        type: 3}
      propertyPath: m_Name
      value: Breakable Stronger
      objectReference: {fileID: 0}
    m_RemovedComponents: []
  m_SourcePrefab: {fileID: 100100000, guid: 5a51d56330d51484bb68c65596ea4c44, type: 3}
